[
  {
    "id": 0,
    "category": "Live",
    "imageName": "boris-jhonson-spech",
    "media": true,
    "title": "Trump wants California to let automaker Tesla reopen assembly plant",
    "url": "https://www.theguardian.com/uk-news/live/2020/may/10/uk-coronavirus-live-boris-johnson-to-announce-covid-19-alert-system"
  },
  {
    "id": 1,
    "category": "Threat levels",
    "media": false,
    "title": "Johnson to announce five-tier coronavirus alert system",
    "url": "https://www.theguardian.com/politics/2020/may/10/boris-johnson-to-announce-five-tier-coronavirus-alert-system"
  },
  {
    "id": 2,
    "category": "Gambling",
    "imageName": "sky-bet",
    "media": true,
    "title": "Betting firms' social messages are ‘thinly veiled’ adverts, say MPs",
    "url": "https://www.theguardian.com/world/2020/may/10/gambling-firms-social-messages-are-thinly-veiled-adverts-say-mps"
  },
  {
    "id": 3,
    "category": "Equality",
    "media": false,
    "title": "Watchdog urged to investigate Covid-19 impact on BAME people",
    "url": "https://www.theguardian.com/world/2020/may/10/equality-watchdog-urged-investigate-impact-on-bame-people-london-mayor"
  },
  {
    "id": 4,
    "category": "Travel industry",
    "media": false,
    "title": "Firms warn against 'nightmare' of two-week quarantine",
    "url": "https://www.theguardian.com/world/2020/may/10/uk-travel-industry-warns-against-nightmare-of-two-week-quarantine"
  },
  {
    "id": 5,
    "category": "Second wave",
    "media": false,
    "title": "Doctors warn of fresh coronavirus outbreak as UK lockdown weakens",
    "url": "https://www.theguardian.com/politics/2020/may/10/doctors-warn-of-second-coronavirus-wave-as-uk-lockdown-weakens"
  },
  {
    "id": 6,
    "category": "OutRage! turns 30",
    "media": false,
    "title": "LGBT activists seek truth over police role",
    "url": "https://www.theguardian.com/world/2020/may/10/outrage-turns-30-lgbt-activists-seek-truth-over-police-role"
  },
  {
    "id": 7,
    "category": "Exclusive",
    "media": false,
    "title": "Family reunion rescue flight to leave Athens for UK",
    "url": "https://www.theguardian.com/global-development/2020/may/10/exclusive-family-reunion-rescue-flight-to-leave-athens-for-uk"
  },
  {
    "id": 8,
    "category": "NHS",
    "media": false,
    "title": "Coronavirus: doctors call for inquiry into PPE shortages for health staff",
    "url": "https://www.theguardian.com/society/2020/may/10/coronavirus-doctors-call-for-inquiry-into-ppe-shortages-for-nhs-staff"
  },
  {
    "id": 9,
    "category": "Contact tracing",
    "media": false,
    "title": "UK coronavirus app could be 'ditched for different model' after trials",
    "url": "https://www.theguardian.com/world/2020/may/10/uk-coronavirus-app-could-be-ditched-for-different-model-after-trials"
  }
]
